aniso8601==3.0.2
#coverage==4.5.1
Django==2.0.7
#django-debug-toolbar==1.9.1
django-js-asset==1.1.0
django-modeltranslation==0.13b1
django-mptt==0.9.0
graphene==2.1.3
graphene-django==2.2.0
graphql-core==2.1
graphql-relay==0.4.5
Pillow==5.2.0
promise==2.1
psycopg2-binary==2.7.5
pytz==2018.5
Rx==1.6.1
singledispatch==3.4.0.3
six==1.11.0
#snapshottest==0.5.0
#sqlparse==0.2.4
#termcolor==1.1.0
typing==3.6.6
uWSGI==2.0.17
